%YAML 1.1
%TAG !u! tag:unity3d.com,2011:
--- !u!114 &11400000
MonoBehaviour:
  m_ObjectHideFlags: 0
  m_CorrespondingSourceObject: {fileID: 0}
  m_PrefabInstance: {fileID: 0}
  m_PrefabAsset: {fileID: 0}
  m_GameObject: {fileID: 0}
  m_Enabled: 1
  m_EditorHideFlags: 0
  m_Script: {fileID: 11500000, guid: e3fc0ed7f447e86489000084f4439216, type: 3}
  m_Name: LeatherHelmet1
  m_EditorClassIdentifier: 
  id: 2
  nameKey: leather_helmet
  bonesSprite:
    body: {fileID: 0}
    head: {fileID: 3295600129616888215, guid: e6a0f087157f0d647af8ca6a3ece3dec, type: 3}
    legLeftUp: {fileID: 0}
    legLeftDown: {fileID: 0}
    legRightUp: {fileID: 0}
    legRightDown: {fileID: 0}
    frontArmUp: {fileID: 0}
    frontArmDown: {fileID: 0}
    backArmUp: {fileID: 0}
    backArmDown: {fileID: 0}
  inventorySprite: {fileID: 8005514607796192799, guid: 7a065eddaeced614cb27c4254225b825,
    type: 3}
  itemType: 4
  rarity: 0
  inventorySound: {fileID: 8300000, guid: b3d6152061db2f7459131f706d17b3f0, type: 3}
  useSound: {fileID: 0}
  isUsableFromInventory: 0
  strengthBonus: 0
  dexterityBonus: 0
  intelligenceBonus: 0
  hpBonus: 0
  mpBonus: 0
  hpMaxBonus: 0
  mpMaxBonus: 0
