%YAML 1.1
%TAG !u! tag:unity3d.com,2011:
--- !u!114 &11400000
MonoBehaviour:
  m_ObjectHideFlags: 0
  m_CorrespondingSourceObject: {fileID: 0}
  m_PrefabInstance: {fileID: 0}
  m_PrefabAsset: {fileID: 0}
  m_GameObject: {fileID: 0}
  m_Enabled: 1
  m_EditorHideFlags: 0
  m_Script: {fileID: 11500000, guid: 7dcd72f43445b384fb9d475dc53b7e58, type: 3}
  m_Name: ListOfItems
  m_EditorClassIdentifier: 
  listOfItems:
  - {fileID: 11400000, guid: eb9b9f94b44f023418555e1c0f033c68, type: 2}
  - {fileID: 11400000, guid: 090c4f2e1418582428a1a2f5874adf41, type: 2}
  - {fileID: 11400000, guid: f6120795ccccb9445b820d61f24993ff, type: 2}
  - {fileID: 11400000, guid: 1d82a8a90fc389744a9c79f7fe1f50dd, type: 2}
  - {fileID: 11400000, guid: fc3ec9f866fef4d49a2af51ed0b18862, type: 2}
  - {fileID: 11400000, guid: a3463fbe627b27245b82371f1b50c0c4, type: 2}
  - {fileID: 11400000, guid: 09bf3bc61bd4e194da6ae039c7b4a5c4, type: 2}
