%YAML 1.1
%TAG !u! tag:unity3d.com,2011:
--- !u!114 &11400000
MonoBehaviour:
  m_ObjectHideFlags: 0
  m_CorrespondingSourceObject: {fileID: 0}
  m_PrefabInstance: {fileID: 0}
  m_PrefabAsset: {fileID: 0}
  m_GameObject: {fileID: 0}
  m_Enabled: 1
  m_EditorHideFlags: 0
  m_Script: {fileID: 11500000, guid: 06adf9824a692e0478b2c6660f627396, type: 3}
  m_Name: ShortSword
  m_EditorClassIdentifier: 
  id: 1
  nameKey: short_sword
  additionalDescription: 
  actionPoint: 1
  cardType: 0
  cardImagePrefab: {fileID: 6913592914235609217, guid: 79bdd85316b9ba643b46f7aed59c34f8,
    type: 3}
  skill: 0
  target: 2
  range: 2
  rangeValue: 1
