{
  "items": [
    { "key": "game_title", "value": "TanCard" },
    { "key": "new_game_menu", "value": "New Game" },
    { "key": "continue_game_menu", "value": "Continue" },
    { "key": "settings_game_menu", "value": "Settings" },
    { "key": "help_menu", "value": "Help" },
    { "key": "quit_game_menu", "value": "Quit game" },
    { "key": "quit_confirm", "value": "Are you sure you want to quit?" },
    {
      "key": "new_game_confirm",
      "value": "Are you sure you want to start a new game? The previous one will be deleted!"
    },
    { "key": "loading", "value": "Loading" },
    { "key": "chest_map_item_description", "value": "Chest" },
    { "key": "quest_map_item_description", "value": "Unknown" },
    { "key": "sword_map_item_description", "value": "Fight" },
    { "key": "rest_map_item_description", "value": "Rest" },
    { "key": "yes", "value": "Yes" },
    { "key": "no", "value": "No" },
    { "key": "cancel", "value": "Cancel" },
    { "key": "inventory", "value": "Inventory" },
    { "key": "close_inventory", "value": "Close inventory" },
    { "key": "use", "value": "Use" },
    { "key": "throw_away", "value": "Throw away" },
    { "key": "throw_away_button", "value": "Throw away the selected item" },
    {
      "key": "throw_away_confirm",
      "value": "Are you sure you want to throw away this item?"
    },
    { "key": "use_button", "value": "Use the selected item" },
    {
      "key": "double_handed_weapons_warning",
      "value": "You cannot equip a two-handed weapon if you have a shield or a weapon equipped in your second hand!"
    },
    { "key": "ok", "value": "Ok" },
    { "key": "strength", "value": "Strength" },
    { "key": "dexterity", "value": "Dexterity" },
    { "key": "intelligence", "value": "Intelligence" },
    { "key": "hp", "value": "HP" },
    { "key": "mp", "value": "MP" },
    { "key": "hp_max", "value": "HP Max" },
    { "key": "mp_max", "value": "MP Max" },
    { "key": "inventory_empty_slot", "value": "Empty slot" },
    { "key": "inventory_empty_weapon_slot", "value": "Empty weapon slot" },
    {
      "key": "inventory_empty_weapon_shield_slot",
      "value": "Empty weapon/shield slot"
    },
    { "key": "inventory_empty_armor_slot", "value": "Empty armor slot" },
    { "key": "inventory_empty_shoes_slot", "value": "Empty shoes slot" },
    { "key": "inventory_empty_ring_slot", "value": "Empty ring slot" },
    { "key": "inventory_empty_helmet_slot", "value": "Empty helmet slot" },
    { "key": "armor", "value": "Armor" },
    { "key": "leather_armor", "value": "Leather armor" },
    { "key": "helmet", "value": "Helmet" },
    { "key": "leather_helmet", "value": "Leather helmet" },
    { "key": "item", "value": "Item" },
    { "key": "minor_health_potion", "value": "Minor health potion" },
    { "key": "ring", "value": "Ring" },
    { "key": "zircon_ring", "value": "Zircon ring" },
    { "key": "shield", "value": "Shield" },
    { "key": "small_wooden_shield", "value": "Small wooden shield" },
    { "key": "shoes", "value": "Shoes" },
    { "key": "leather_boots", "value": "Leather boots" },
    { "key": "weapon", "value": "Weapon" },
    { "key": "two_handed_weapon", "value": "Two-handed weapon" },
    { "key": "short_sword", "value": "Short sword" }
  ]
}
