%YAML 1.1
%TAG !u! tag:unity3d.com,2011:
--- !u!114 &11400000
MonoBehaviour:
  m_ObjectHideFlags: 0
  m_CorrespondingSourceObject: {fileID: 0}
  m_PrefabInstance: {fileID: 0}
  m_PrefabAsset: {fileID: 0}
  m_GameObject: {fileID: 0}
  m_Enabled: 1
  m_EditorHideFlags: 0
  m_Script: {fileID: 11500000, guid: 5b992170e8d15584a8114e75f21fa4d9, type: 3}
  m_Name: Diane 1
  m_EditorClassIdentifier: 
  id: 2
  allyGO: {fileID: 3731905125003147083, guid: 52735f2883903cd4c915e99aa75da4a0, type: 3}
  offsetX: 0.02
  offsetY: 0.54
  speed: 1.6
